[gd_scene load_steps=112 format=3 uid="uid://cellhg2boxlv"]

[ext_resource type="Script" path="res://addons/zylann.hterrain/hterrain.gd" id="1_br6v5"]
[ext_resource type="Resource" path="res://addons/zylann.hterrain/data/data.hterrain" id="2_ijfck"]
[ext_resource type="Script" path="res://addons/zylann.hterrain/hterrain_texture_set.gd" id="3_2t818"]
[ext_resource type="Script" path="res://addons/zylann.hterrain/hterrain_detail_layer.gd" id="4_ktlc2"]
[ext_resource type="Shader" path="res://addons/zylann.hterrain/shaders/grass_sway.gdshader" id="5_t1jsu"]
[ext_resource type="ArrayMesh" uid="uid://bnr2eiggv3v6l" path="res://addons/marty_essentials/meshes/grass_tri.obj" id="6_irkij"]
[ext_resource type="Texture2D" uid="uid://6jmdwj3vn6m0" path="res://addons/zylann.hterrain/tools/icons/icon_detail_layer_node.svg" id="7_ykup2"]
[ext_resource type="Script" path="res://addons/proton_scatter/src/scatter.gd" id="8_m7qtr"]
[ext_resource type="Shader" path="res://addons/marty_essentials/shaders/sky.gdshader" id="8_oa5qr"]
[ext_resource type="Script" path="res://addons/proton_scatter/src/stack/modifier_stack.gd" id="9_o4c6y"]
[ext_resource type="PackedScene" uid="uid://cc1m2a1obsyn4" path="res://addons/fpc/character.tscn" id="9_qrem7"]
[ext_resource type="Script" path="res://addons/proton_scatter/src/modifiers/create_inside_random.gd" id="10_x750r"]
[ext_resource type="AudioStream" uid="uid://bd4eysfd1n4ar" path="res://sound/music/003_Vaporware.mp3" id="11_kadb0"]
[ext_resource type="Script" path="res://addons/proton_scatter/src/modifiers/randomize_transforms.gd" id="11_p6io7"]
[ext_resource type="AudioStream" uid="uid://q0wpdclyye4s" path="res://sound/sfx/wind1.wav" id="12_8gfvf"]
[ext_resource type="Script" path="res://addons/proton_scatter/src/modifiers/relax.gd" id="12_hvtox"]
[ext_resource type="Script" path="res://addons/proton_scatter/src/modifiers/project_on_geometry.gd" id="13_l08wx"]
[ext_resource type="Script" path="res://addons/proton_scatter/src/scatter_item.gd" id="14_x83fm"]
[ext_resource type="Script" path="res://addons/proton_scatter/src/scatter_shape.gd" id="15_32pxs"]
[ext_resource type="Script" path="res://addons/proton_scatter/src/shapes/box_shape.gd" id="16_fhjvm"]
[ext_resource type="Environment" uid="uid://cmy57js5oi0sj" path="res://areas/default.tres" id="17_do81y"]
[ext_resource type="PackedScene" uid="uid://brdrf7ueposu7" path="res://objects/boards/starter_screen.tscn" id="20_n06tj"]
[ext_resource type="PackedScene" uid="uid://knguxdc05n88" path="res://objects/board.tscn" id="20_s6f16"]
[ext_resource type="PackedScene" uid="uid://dybsx1qan60jw" path="res://objects/boards/horgna_riddle.tscn" id="21_lrpge"]
[ext_resource type="Script" path="res://addons/proton_scatter/src/modifiers/offset_position.gd" id="22_iwekq"]
[ext_resource type="Script" path="res://addons/proton_scatter/src/shapes/path_shape.gd" id="23_w4b2f"]
[ext_resource type="Script" path="res://scripts/AreaBase.gd" id="25_otfdj"]
[ext_resource type="Script" path="res://scripts/music.gd" id="26_rotun"]
[ext_resource type="AudioStream" uid="uid://c4daniydipq75" path="res://sound/music/Komiku - Tale on the Late - 13 The Wind.mp3" id="27_xh7eu"]
[ext_resource type="AudioStream" uid="uid://b2g8nqupy0n0f" path="res://sound/music/The Settlement of the Frontier. loop.mp3" id="28_fjqpp"]
[ext_resource type="MeshLibrary" uid="uid://782mply64tid" path="res://meshes/temple.tres" id="29_5yfev"]
[ext_resource type="ArrayOccluder3D" uid="uid://b5xe5wjso2n21" path="res://misc/terrain_occlusion.occ" id="30_hdo6p"]
[ext_resource type="Script" path="res://scripts/TalkArea.gd" id="31_27su3"]
[ext_resource type="Resource" uid="uid://c8ag34cmm5kul" path="res://areas/gisperts_forest/gispaat.dialogue" id="31_ffbpd"]
[ext_resource type="PackedScene" uid="uid://pfnf6qqjvgca" path="res://meshes/orb.blend" id="32_hn0ap"]
[ext_resource type="PackedScene" uid="uid://bbkfle764agwl" path="res://objects/boards/forest_board.tscn" id="32_x86ni"]
[ext_resource type="Resource" uid="uid://cupg18ljikoyr" path="res://areas/hognic_burg/hogner_1.dialogue" id="32_yvhjj"]
[ext_resource type="PackedScene" uid="uid://b6hviwl3av5vx" path="res://character.tscn" id="33_4v1g2"]
[ext_resource type="Texture2D" uid="uid://c8tjfpaq7x8yf" path="res://textures/wizard.png" id="35_fxrft"]
[ext_resource type="Texture2D" uid="uid://cnrj8yqspwbyw" path="res://textures/sage_Gisbaat.png" id="35_q13lo"]
[ext_resource type="PackedScene" uid="uid://4wi0d0p8e5b8" path="res://objects/apple.tscn" id="39_dumcj"]
[ext_resource type="PackedScene" uid="uid://cxjutxd0hk6do" path="res://objects/boards/nothingnessboard.tscn" id="40_0bstx"]
[ext_resource type="PackedScene" uid="uid://blhwr1ero4aae" path="res://objects/boards/why_board.tscn" id="41_ab8y3"]
[ext_resource type="Texture2D" uid="uid://c6vwmin55repn" path="res://textures/viking.png" id="42_1fbta"]
[ext_resource type="FontFile" uid="uid://b7wuphvx7botw" path="res://LiberationSerif-Italic.ttf" id="42_vu1de"]
[ext_resource type="Texture2D" uid="uid://c1xo2crlequg1" path="res://textures/flying thing.png" id="43_nwiph"]
[ext_resource type="Texture2D" uid="uid://c8asdnf8phavt" path="res://textures/king_horgna.png" id="43_qulom"]
[ext_resource type="Shader" path="res://shaders/cool_text.gdshader" id="46_w7yjy"]

[sub_resource type="Resource" id="Resource_fwqb4"]
script = ExtResource("3_2t818")
mode = 0
textures = [[], []]

[sub_resource type="FastNoiseLite" id="FastNoiseLite_legnd"]
frequency = 0.0096
fractal_type = 0

[sub_resource type="NoiseTexture2D" id="NoiseTexture2D_h1u4n"]
seamless = true
noise = SubResource("FastNoiseLite_legnd")

[sub_resource type="Resource" id="Resource_x0sgk"]
script = ExtResource("10_x750r")
amount = 300
enabled = true
override_global_seed = false
custom_seed = 0
restrict_height = true
reference_frame = 1

[sub_resource type="Resource" id="Resource_twwq5"]
script = ExtResource("11_p6io7")
position = Vector3(0.15, 0.15, 0.15)
rotation = Vector3(2, 360, 2)
scale = Vector3(0.5, 0.5, 0.5)
enabled = true
override_global_seed = false
custom_seed = 0
restrict_height = false
reference_frame = 2

[sub_resource type="Resource" id="Resource_o48fv"]
script = ExtResource("12_hvtox")
iterations = 3
offset_step = 0.2
consecutive_step_multiplier = 0.75
use_computeshader = true
enabled = true
override_global_seed = false
custom_seed = 0
restrict_height = true
reference_frame = 0

[sub_resource type="Resource" id="Resource_0gfsv"]
script = ExtResource("13_l08wx")
ray_direction = Vector3(0, -1, 0)
ray_length = 50.0
ray_offset = 5.0
remove_points_on_miss = true
align_with_collision_normal = false
max_slope = 90.0
collision_mask = 2
exclude_mask = 0
enabled = true
override_global_seed = false
custom_seed = 0
restrict_height = false
reference_frame = 0

[sub_resource type="Resource" id="Resource_ywg2a"]
script = ExtResource("9_o4c6y")
stack = Array[Resource("res://addons/proton_scatter/src/modifiers/base_modifier.gd")]([SubResource("Resource_x0sgk"), SubResource("Resource_twwq5"), SubResource("Resource_o48fv"), SubResource("Resource_0gfsv")])

[sub_resource type="Resource" id="Resource_a6sqi"]
script = ExtResource("16_fhjvm")
size = Vector3(347.374, 1, 287.948)

[sub_resource type="QuadOccluder3D" id="QuadOccluder3D_j418t"]
size = Vector2(194.025, 85.4042)

[sub_resource type="QuadOccluder3D" id="QuadOccluder3D_j3kqv"]
size = Vector2(50.2073, 72.5433)

[sub_resource type="QuadOccluder3D" id="QuadOccluder3D_2h3xd"]
size = Vector2(51.0575, 90.6351)

[sub_resource type="Resource" id="Resource_lquom"]
script = ExtResource("10_x750r")
amount = 200
enabled = true
override_global_seed = false
custom_seed = 0
restrict_height = true
reference_frame = 1

[sub_resource type="Resource" id="Resource_xadrk"]
script = ExtResource("11_p6io7")
position = Vector3(0.15, 0.15, 0.15)
rotation = Vector3(20, 360, 20)
scale = Vector3(0.1, 0.1, 0.1)
enabled = true
override_global_seed = false
custom_seed = 0
restrict_height = false
reference_frame = 2

[sub_resource type="Resource" id="Resource_bldq0"]
script = ExtResource("12_hvtox")
iterations = 3
offset_step = 0.2
consecutive_step_multiplier = 0.75
use_computeshader = true
enabled = true
override_global_seed = false
custom_seed = 0
restrict_height = true
reference_frame = 0

[sub_resource type="Resource" id="Resource_msdgw"]
script = ExtResource("13_l08wx")
ray_direction = Vector3(0, -1, 0)
ray_length = 5.0
ray_offset = 5.0
remove_points_on_miss = false
align_with_collision_normal = false
max_slope = 90.0
collision_mask = 1
exclude_mask = 0
enabled = true
override_global_seed = false
custom_seed = 0
restrict_height = false
reference_frame = 0

[sub_resource type="Resource" id="Resource_drgct"]
script = ExtResource("22_iwekq")
operation = 0
position = Vector3(0, 0.4, 0)
enabled = true
override_global_seed = false
custom_seed = 0
restrict_height = false
reference_frame = 2

[sub_resource type="Resource" id="Resource_qisns"]
script = ExtResource("9_o4c6y")
stack = Array[Resource("res://addons/proton_scatter/src/modifiers/base_modifier.gd")]([SubResource("Resource_lquom"), SubResource("Resource_xadrk"), SubResource("Resource_bldq0"), SubResource("Resource_msdgw"), SubResource("Resource_drgct")])

[sub_resource type="Curve3D" id="Curve3D_4i2jg"]
_data = {
"points": PackedVector3Array(0, 0, 0, 0, 0, 0, -22.7327, 0, -1.34222, 0, 0, 0, 0, 0, 0, -4.45819, 0, 11.2673, 0, 0, 0, 0, 0, 0, 16.8705, 0, 3.80029, 0, 0, 0, 0, 0, 0, 27.222, 1.90735e-06, -7.62346, 0, 0, 0, 0, 0, 0, 16.5748, -1.90735e-06, -13.1194, 0, 0, 0, 0, 0, 0, 10.5043, 1.90735e-06, -1.82802),
"tilts": PackedFloat32Array(0, 0, 0, 0, 0, 0)
}
point_count = 6

[sub_resource type="Resource" id="Resource_4w1ng"]
script = ExtResource("23_w4b2f")
closed = false
thickness = 7.775
curve = SubResource("Curve3D_4i2jg")

[sub_resource type="ShaderMaterial" id="ShaderMaterial_tlbgn"]
shader = ExtResource("8_oa5qr")
shader_parameter/day_top_color = Color(0.1, 0.6, 1, 1)
shader_parameter/day_bottom_color = Color(0.4, 0.8, 1, 1)
shader_parameter/sunset_top_color = Color(0.7, 0.75, 1, 1)
shader_parameter/sunset_bottom_color = Color(1, 0.5, 0.7, 1)
shader_parameter/night_top_color = Color(0.02, 0, 0.04, 1)
shader_parameter/night_bottom_color = Color(0.1, 0, 0.2, 1)
shader_parameter/horizon_color = Color(0, 0.7, 0.8, 1)
shader_parameter/horizon_blur = 0.05
shader_parameter/sun_color = Color(10, 8, 1, 1)
shader_parameter/sun_sunset_color = Color(10, 0, 0, 1)
shader_parameter/sun_size = 0.2
shader_parameter/sun_blur = 10.0
shader_parameter/moon_color = Color(1, 0.95, 0.7, 1)
shader_parameter/moon_size = 0.06
shader_parameter/moon_blur = 0.1
shader_parameter/clouds_edge_color = Color(0.8, 0.8, 0.98, 1)
shader_parameter/clouds_top_color = Color(1, 1, 1, 1)
shader_parameter/clouds_middle_color = Color(0.92, 0.92, 0.98, 1)
shader_parameter/clouds_bottom_color = Color(0.83, 0.83, 0.94, 1)
shader_parameter/clouds_speed = 2.0
shader_parameter/clouds_direction = 0.2
shader_parameter/clouds_scale = 1.0
shader_parameter/clouds_cutoff = 0.3
shader_parameter/clouds_fuzziness = 0.5
shader_parameter/clouds_weight = 0.0
shader_parameter/clouds_blur = 0.25
shader_parameter/stars_speed = 1.0
shader_parameter/overwritten_time = 0.0

[sub_resource type="Sky" id="Sky_iowec"]
sky_material = SubResource("ShaderMaterial_tlbgn")

[sub_resource type="Environment" id="Environment_dqgul"]
background_mode = 2
sky = SubResource("Sky_iowec")
tonemap_mode = 3
tonemap_exposure = 0.49
tonemap_white = 0.18
glow_intensity = 0.09
glow_strength = 1.24
glow_hdr_threshold = 0.26
fog_enabled = true
fog_light_color = Color(0, 0.12549, 0.196078, 1)
fog_light_energy = 0.7
fog_density = 0.0555
volumetric_fog_anisotropy = 0.9
adjustment_contrast = 0.9
adjustment_saturation = 1.2

[sub_resource type="Resource" id="Resource_qlujf"]
script = ExtResource("10_x750r")
amount = 100
enabled = true
override_global_seed = false
custom_seed = 0
restrict_height = true
reference_frame = 1

[sub_resource type="Resource" id="Resource_evqnb"]
script = ExtResource("11_p6io7")
position = Vector3(0.15, 0.15, 0.15)
rotation = Vector3(2, 360, 2)
scale = Vector3(3, 2, 3)
enabled = true
override_global_seed = false
custom_seed = 0
restrict_height = false
reference_frame = 2

[sub_resource type="Resource" id="Resource_3xt6i"]
script = ExtResource("12_hvtox")
iterations = 3
offset_step = 0.2
consecutive_step_multiplier = 0.75
use_computeshader = true
enabled = true
override_global_seed = false
custom_seed = 0
restrict_height = true
reference_frame = 0

[sub_resource type="Resource" id="Resource_1rwg5"]
script = ExtResource("13_l08wx")
ray_direction = Vector3(0, -1, 0)
ray_length = 20.0
ray_offset = 5.0
remove_points_on_miss = false
align_with_collision_normal = false
max_slope = 90.0
collision_mask = 2
exclude_mask = 0
enabled = true
override_global_seed = false
custom_seed = 0
restrict_height = false
reference_frame = 0

[sub_resource type="Resource" id="Resource_qsguo"]
script = ExtResource("9_o4c6y")
stack = Array[Resource("res://addons/proton_scatter/src/modifiers/base_modifier.gd")]([SubResource("Resource_qlujf"), SubResource("Resource_evqnb"), SubResource("Resource_3xt6i"), SubResource("Resource_1rwg5")])

[sub_resource type="Curve3D" id="Curve3D_3gjd4"]
_data = {
"points": PackedVector3Array(0, 0, 0, 0, 0, 0, -43.7449, 1.90735e-06, 34.3441, -21.1481, -3.8147e-06, -3.20049, 21.1481, 3.8147e-06, 3.20049, -27.6279, 1.90735e-06, 62.6275, 6.55387, 0, 21.1281, -6.55387, 0, -21.1281, 6.46327, -1.90735e-06, 27.5446, 0, 0, 0, 0, 0, 0, -43.3452, 1.90735e-06, 21.8741),
"tilts": PackedFloat32Array(0, 0, 0, 0)
}
point_count = 4

[sub_resource type="Resource" id="Resource_kqrcy"]
script = ExtResource("23_w4b2f")
closed = true
thickness = 17.35
curve = SubResource("Curve3D_3gjd4")

[sub_resource type="SphereShape3D" id="SphereShape3D_m7o3a"]
radius = 34.1584

[sub_resource type="Environment" id="Environment_28as3"]
background_mode = 2
sky = SubResource("Sky_iowec")
tonemap_mode = 3
tonemap_exposure = 0.49
tonemap_white = 0.18
glow_enabled = true
glow_intensity = 0.09
glow_strength = 1.24
glow_bloom = 0.3
glow_hdr_threshold = 0.26
fog_enabled = true
fog_light_color = Color(0.858824, 0.737255, 0.47451, 1)
fog_light_energy = 0.8
fog_sun_scatter = 0.06
fog_density = 0.0116
fog_sky_affect = 0.674
volumetric_fog_anisotropy = 0.9
adjustment_contrast = 0.9
adjustment_saturation = 1.2

[sub_resource type="BoxShape3D" id="BoxShape3D_gwogm"]
size = Vector3(35.655, 22.304, 22.2563)

[sub_resource type="GDScript" id="GDScript_4vh62"]
script/source = "extends Area3D


func _ready():
	body_entered.connect(entered)

func entered(body:Node3D):
	if !body.is_in_group(\"Player\"):
		return
	G.event()
	G.temp[\"orb\"] = true
	queue_free()
"

[sub_resource type="GDScript" id="GDScript_fwevy"]
script/source = "extends Node3D


@export var rotationSpeed:float = 1.0



@onready var initPos:float = global_position.y

# Called every frame. 'delta' is the elapsed time since the previous frame.
func _process(delta):
	rotation.y += delta * rotationSpeed
	global_position.y = initPos + sin(delta)
	
"

[sub_resource type="SphereShape3D" id="SphereShape3D_tquam"]
radius = 0.652314

[sub_resource type="Curve" id="Curve_jkran"]
_data = [Vector2(0, 0), 0.0, 0.0, 0, 0, Vector2(0.234848, 1), 0.0, 0.0, 0, 0, Vector2(1, 0), 0.0, 0.0, 0, 0]
point_count = 3

[sub_resource type="CurveTexture" id="CurveTexture_820yt"]
width = 32
curve = SubResource("Curve_jkran")

[sub_resource type="ParticleProcessMaterial" id="ParticleProcessMaterial_x370g"]
direction = Vector3(0, 1, 0)
spread = 65.25
initial_velocity_min = 4.0
initial_velocity_max = 4.0
scale_curve = SubResource("CurveTexture_820yt")

[sub_resource type="StandardMaterial3D" id="StandardMaterial3D_q42qm"]
albedo_color = Color(0, 0, 0, 1)
metallic = 1.0
metallic_specular = 0.0
roughness = 0.0
emission_enabled = true
emission = Color(0, 1, 0, 1)

[sub_resource type="SphereMesh" id="SphereMesh_u18ax"]
material = SubResource("StandardMaterial3D_q42qm")
radius = 0.05
height = 0.1

[sub_resource type="QuadOccluder3D" id="QuadOccluder3D_jn6x6"]
size = Vector2(4.0704, 3.33661)

[sub_resource type="BoxShape3D" id="BoxShape3D_cjptl"]
size = Vector3(23.0371, 6.19824, 19.9114)

[sub_resource type="BoxShape3D" id="BoxShape3D_kvqkq"]
size = Vector3(3.14966, 1.76416, 3.27734)

[sub_resource type="BoxShape3D" id="BoxShape3D_p7o0s"]
size = Vector3(183.434, 47.7532, 479.426)

[sub_resource type="BoxShape3D" id="BoxShape3D_q873g"]
size = Vector3(78.0411, 42.46, 106.412)

[sub_resource type="Animation" id="Animation_iufyx"]
length = 0.001
tracks/0/type = "value"
tracks/0/imported = false
tracks/0/enabled = true
tracks/0/path = NodePath("Anim/Path3D/PathFollow3D:progress_ratio")
tracks/0/interp = 1
tracks/0/loop_wrap = true
tracks/0/keys = {
"times": PackedFloat32Array(0),
"transitions": PackedFloat32Array(1),
"update": 0,
"values": [0.0]
}
tracks/1/type = "value"
tracks/1/imported = false
tracks/1/enabled = true
tracks/1/path = NodePath("Anim/Path3D/PathFollow3D/Camera3D:current")
tracks/1/interp = 1
tracks/1/loop_wrap = true
tracks/1/keys = {
"times": PackedFloat32Array(0),
"transitions": PackedFloat32Array(1),
"update": 1,
"values": [false]
}
tracks/2/type = "value"
tracks/2/imported = false
tracks/2/enabled = true
tracks/2/path = NodePath("Anim/Anchor:rotation")
tracks/2/interp = 1
tracks/2/loop_wrap = true
tracks/2/keys = {
"times": PackedFloat32Array(0),
"transitions": PackedFloat32Array(1),
"update": 0,
"values": [Vector3(0, 0, 3.14159)]
}

[sub_resource type="Animation" id="Animation_soupd"]
resource_name = "event"
length = 10.0
tracks/0/type = "value"
tracks/0/imported = false
tracks/0/enabled = true
tracks/0/path = NodePath("Anim/Path3D/PathFollow3D:progress_ratio")
tracks/0/interp = 1
tracks/0/loop_wrap = true
tracks/0/keys = {
"times": PackedFloat32Array(0, 8.5),
"transitions": PackedFloat32Array(-2, 1),
"update": 0,
"values": [0.0, 1.0]
}
tracks/1/type = "value"
tracks/1/imported = false
tracks/1/enabled = true
tracks/1/path = NodePath("Anim/Path3D/PathFollow3D/Camera3D:current")
tracks/1/interp = 1
tracks/1/loop_wrap = true
tracks/1/keys = {
"times": PackedFloat32Array(0, 9.9),
"transitions": PackedFloat32Array(1, 1),
"update": 1,
"values": [true, false]
}
tracks/2/type = "value"
tracks/2/imported = false
tracks/2/enabled = true
tracks/2/path = NodePath("Anim/Anchor:rotation")
tracks/2/interp = 1
tracks/2/loop_wrap = true
tracks/2/keys = {
"times": PackedFloat32Array(0, 10),
"transitions": PackedFloat32Array(-2, 1),
"update": 0,
"values": [Vector3(0, 0, 3.14159), Vector3(0, 0, -2.38419e-07)]
}

[sub_resource type="Animation" id="Animation_xm4uf"]
resource_name = "to_moon"
length = 5.0
tracks/0/type = "value"
tracks/0/imported = false
tracks/0/enabled = true
tracks/0/path = NodePath("Character:position")
tracks/0/interp = 1
tracks/0/loop_wrap = true
tracks/0/keys = {
"times": PackedFloat32Array(0, 5),
"transitions": PackedFloat32Array(2, 1),
"update": 0,
"values": [Vector3(-0.236559, 11.5852, 1.43329), Vector3(-0.236559, 109.279, 1.43329)]
}
tracks/1/type = "value"
tracks/1/imported = false
tracks/1/enabled = true
tracks/1/path = NodePath("Character:rotation")
tracks/1/interp = 1
tracks/1/loop_wrap = true
tracks/1/keys = {
"times": PackedFloat32Array(0, 4.6),
"transitions": PackedFloat32Array(1, 1),
"update": 0,
"values": [Vector3(0, -1.5708, 0), Vector3(-1.5708, -1.5708, 0)]
}
tracks/2/type = "value"
tracks/2/imported = false
tracks/2/enabled = true
tracks/2/path = NodePath("Areas/HognicBurg/Horgna:position")
tracks/2/interp = 1
tracks/2/loop_wrap = true
tracks/2/keys = {
"times": PackedFloat32Array(0, 5),
"transitions": PackedFloat32Array(2, 1),
"update": 0,
"values": [Vector3(10.5018, 9.08532, 0.431273), Vector3(10.5018, 107.287, 0.431273)]
}

[sub_resource type="AnimationLibrary" id="AnimationLibrary_f53g3"]
_data = {
"RESET": SubResource("Animation_iufyx"),
"event": SubResource("Animation_soupd"),
"to_moon": SubResource("Animation_xm4uf")
}

[sub_resource type="Curve3D" id="Curve3D_dweyu"]
_data = {
"points": PackedVector3Array(-0.403928, 0.429895, 2.07021, 0.403928, -0.429895, -2.07021, -11.5924, 16.7776, 5.14901, -1.19337, 1.4357, 1.39073, 1.19337, -1.4357, -1.39073, -11.671, 15.3502, 1.7232, -2.41122, -1.29712, 0.849793, 2.41122, 1.29712, -0.849793, -6.66115, 14.4663, 1.43785, -1.82571, 1.5661, 1.78239, 1.82571, -1.5661, -1.78239, 0.149247, 12.7089, 1.75392, -1.98843, -1.39191, -0.939162, 1.98843, 1.39191, 0.939162, 5.3152, 13.0866, 1.64651, 0, 0, 0, 0, 0, 0, 4.96781, 26.1771, 2.53363),
"tilts": PackedFloat32Array(0, 0, 0.296761, -0.307866, 0, 0)
}
point_count = 6

[sub_resource type="SphereMesh" id="SphereMesh_o8546"]
radius = 50.0
height = 100.0

[sub_resource type="GDScript" id="GDScript_ygohs"]
script/source = "extends Area3D


# Called when the node enters the scene tree for the first time.
func _ready():
	body_entered.connect(entered)


func entered(body:Node3D):
	if !body.is_in_group(\"Player\"):return
	get_tree().get_first_node_in_group(\"Player\").global_position = $Marker3D.global_position
	
	pass
"

[sub_resource type="BoxShape3D" id="BoxShape3D_bo5g5"]
size = Vector3(579.592, 1, 531.403)

[sub_resource type="FastNoiseLite" id="FastNoiseLite_c2034"]

[sub_resource type="NoiseTexture2D" id="NoiseTexture2D_2bx5m"]
seamless = true
noise = SubResource("FastNoiseLite_c2034")

[sub_resource type="ShaderMaterial" id="ShaderMaterial_p3c6u"]
shader = ExtResource("46_w7yjy")
shader_parameter/speed = 1.0
shader_parameter/color1 = Color(1, 1, 1, 1)
shader_parameter/color2 = Color(0.14902, 0.14902, 0.14902, 1)
shader_parameter/noise = SubResource("NoiseTexture2D_2bx5m")

[sub_resource type="LabelSettings" id="LabelSettings_qlob4"]
font = ExtResource("42_vu1de")
font_size = 79

[sub_resource type="Curve" id="Curve_woel8"]
_data = [Vector2(0, 1), 0.0, 0.0, 0, 0, Vector2(1, 1), 0.0, 0.0, 0, 0]
point_count = 2

[sub_resource type="CurveTexture" id="CurveTexture_2pegj"]
curve = SubResource("Curve_woel8")

[sub_resource type="ParticleProcessMaterial" id="ParticleProcessMaterial_33lhp"]
emission_shape_scale = Vector3(10, 10, 10)
emission_shape = 3
emission_box_extents = Vector3(1, 1, 1)
spread = 180.0
initial_velocity_min = 0.3
initial_velocity_max = 0.3
gravity = Vector3(0, 0, 0)
scale_curve = SubResource("CurveTexture_2pegj")
turbulence_enabled = true

[sub_resource type="StandardMaterial3D" id="StandardMaterial3D_d282s"]
transparency = 1
shading_mode = 0
albedo_texture = ExtResource("43_nwiph")
billboard_mode = 3
particles_anim_h_frames = 1
particles_anim_v_frames = 1
particles_anim_loop = false

[sub_resource type="QuadMesh" id="QuadMesh_7ey0w"]
material = SubResource("StandardMaterial3D_d282s")
size = Vector2(0.04, 0.04)

[node name="Game" type="Node3D"]

[node name="HTerrain" type="Node3D" parent="." groups=["Grass"]]
script = ExtResource("1_br6v5")
centered = true
_terrain_data = ExtResource("2_ijfck")
chunk_size = 16
collision_enabled = true
collision_layer = 3
collision_mask = 3
shader_type = "Classic4Lite"
custom_shader = null
custom_globalmap_shader = null
texture_set = SubResource("Resource_fwqb4")
render_layers = 1
cast_shadow = 1
shader_params/u_ground_uv_scale = 20
shader_params/u_depth_blending = false
shader_params/u_triplanar = false
shader_params/u_tile_reduction = null

[node name="GrassNear2" type="Node3D" parent="HTerrain"]
script = ExtResource("4_ktlc2")
view_distance = 68.25
custom_shader = ExtResource("5_t1jsu")
density = 1.261
instance_mesh = ExtResource("6_irkij")
cast_shadow = 0
shader_params/topColor = Color(0, 0.709804, 0.262745, 1)
shader_params/bottomColor = Color(0, 0.639216, 0.129412, 1)
shader_params/metallic = 0.25
shader_params/windStrength = 0.1
shader_params/thickFactor = 0.575
shader_params/downMovement = 0.38
shader_params/timeScale = 3.32
shader_params/uvScale = 0.61
shader_params/yScale = 0.32
shader_params/u_globalmap_tint_bottom = 0.0
shader_params/u_globalmap_tint_top = null
shader_params/u_bottom_ao = 0.0
shader_params/u_instance_scale = null
shader_params/u_roughness = null
shader_params/_normal = null
shader_params/windNoise = SubResource("NoiseTexture2D_h1u4n")
metadata/_editor_icon = ExtResource("7_ykup2")

[node name="GrassNear3" type="Node3D" parent="HTerrain"]
script = ExtResource("4_ktlc2")
view_distance = 54.371
custom_shader = ExtResource("5_t1jsu")
density = 1.328
instance_mesh = ExtResource("6_irkij")
cast_shadow = 0
shader_params/topColor = Color(0, 0.709804, 0.262745, 1)
shader_params/bottomColor = Color(0, 0.639216, 0.129412, 1)
shader_params/metallic = 0.25
shader_params/windStrength = 0.1
shader_params/thickFactor = 0.575
shader_params/downMovement = 0.38
shader_params/timeScale = 3.32
shader_params/uvScale = 0.61
shader_params/yScale = 0.32
shader_params/u_globalmap_tint_bottom = 0.0
shader_params/u_globalmap_tint_top = null
shader_params/u_bottom_ao = 0.0
shader_params/u_instance_scale = null
shader_params/u_roughness = null
shader_params/_normal = null
shader_params/windNoise = SubResource("NoiseTexture2D_h1u4n")
metadata/_editor_icon = ExtResource("7_ykup2")

[node name="Trees" type="Node3D" parent="HTerrain"]
transform = Transform3D(1, 0, 0, 0, 1, 0, 0, 0, 1, 25.6321, 0, -7.09111)
script = ExtResource("8_m7qtr")
keep_static_colliders = true
modifier_stack = SubResource("Resource_ywg2a")
Performance/use_chunks = true
Performance/chunk_dimensions = Vector3(15, 15, 15)

[node name="ScatterItem" type="Node3D" parent="HTerrain/Trees"]
script = ExtResource("14_x83fm")
path = "res://addons/proton_scatter/demos/assets/pine_tree.tscn"

[node name="ScatterShape" type="Node3D" parent="HTerrain/Trees"]
transform = Transform3D(1, 0, -2.98023e-08, 0, 1, 0, 2.98023e-08, 0, 1, 0, 0, 0)
visible = false
script = ExtResource("15_32pxs")
shape = SubResource("Resource_a6sqi")

[node name="OccluderInstance3D" type="OccluderInstance3D" parent="HTerrain"]
transform = Transform3D(0.956269, -0.292489, 0, 0.292489, 0.956269, 0, 0, 0, 1, -86.3512, -58.4353, 1.57944)
occluder = SubResource("QuadOccluder3D_j418t")

[node name="OccluderInstance3D2" type="OccluderInstance3D" parent="HTerrain"]
transform = Transform3D(0.999538, 0.030399, 0, -0.030399, 0.999538, 0, 0, 0, 1, -1.92591, -30.2649, 1.57944)
occluder = SubResource("QuadOccluder3D_j3kqv")

[node name="OccluderInstance3D3" type="OccluderInstance3D" parent="HTerrain"]
transform = Transform3D(1, 0, 0, 0, 0.420925, 0.907095, 0, -0.907095, 0.420925, -4.07712, -12.6047, 45.5224)
occluder = SubResource("QuadOccluder3D_2h3xd")

[node name="OccluderInstance3D4" type="OccluderInstance3D" parent="HTerrain"]
transform = Transform3D(1, 0, 0, 0, 1, 0, 0, 0, 1, -256.306, -5.61456, -253.723)
occluder = ExtResource("30_hdo6p")

[node name="Env" type="WorldEnvironment" parent="."]
unique_name_in_owner = true
environment = ExtResource("17_do81y")

[node name="Character" parent="." groups=["Player"] instance=ExtResource("9_qrem7")]
transform = Transform3D(1, 0, 0, 0, 1, 0, 0, 0, 1, -5.74767, -11.8986, 137.261)
in_air_momentum = false

[node name="Signs" type="Node3D" parent="."]

[node name="Horgna" parent="Signs" instance=ExtResource("20_s6f16")]
transform = Transform3D(-2.98628, -0.014646, 6.4019e-10, -2.49588e-16, -1.30536e-07, -2.98632, 0.014646, -2.98628, 1.30535e-07, 2.01173, 12.7985, 3.73272)
_auto_load_ui = ExtResource("21_lrpge")

[node name="StarterBoard" parent="Signs" instance=ExtResource("20_s6f16")]
transform = Transform3D(3.88661, -1.42109e-14, 8.47033e-22, -6.03567e-22, -1.69889e-07, -3.88661, 1.42109e-14, 3.88661, -1.69889e-07, -5.63977, -11.0081, 132.656)
_auto_load_ui = ExtResource("20_n06tj")

[node name="Board" parent="Signs" instance=ExtResource("20_s6f16")]
transform = Transform3D(2.93939, -2.54277, 1.11148e-07, 0, -1.69889e-07, -3.88661, 2.54277, 2.93939, -1.28485e-07, 63.0467, -7.46844, -138.162)
_auto_load_ui = ExtResource("40_0bstx")

[node name="Board2" parent="Signs" instance=ExtResource("20_s6f16")]
transform = Transform3D(-2.5826, -2.90446, 1.26958e-07, -9.38986e-15, -1.69889e-07, -3.88661, 2.90446, -2.5826, 1.12889e-07, 137.467, -22.5572, 95.2206)
_auto_load_ui = ExtResource("41_ab8y3")

[node name="Wind" type="AudioStreamPlayer" parent="."]
unique_name_in_owner = true
stream = ExtResource("12_8gfvf")
autoplay = true

[node name="Scatters" type="Node3D" parent="."]

[node name="StartStones" type="Node3D" parent="Scatters"]
transform = Transform3D(1, 0, 0, 0, 1, 0, 0, 0, 1, 2.12241, -10.1549, 143.501)
script = ExtResource("8_m7qtr")
keep_static_colliders = true
modifier_stack = SubResource("Resource_qisns")
Performance/use_chunks = true
Performance/chunk_dimensions = Vector3(15, 15, 15)

[node name="ScatterItem" type="Node3D" parent="Scatters/StartStones"]
script = ExtResource("14_x83fm")
path = "res://addons/proton_scatter/demos/assets/large_rock.tscn"

[node name="ScatterShape" type="Node3D" parent="Scatters/StartStones"]
transform = Transform3D(1, 0, -2.98023e-08, 0, 1, 0, 2.98023e-08, 0, 1, 0, 0, 0)
visible = false
script = ExtResource("15_32pxs")
shape = SubResource("Resource_4w1ng")

[node name="Music" type="Node" parent="."]
unique_name_in_owner = true
script = ExtResource("26_rotun")
defaultMusic = ExtResource("11_kadb0")

[node name="Areas" type="Node3D" parent="."]

[node name="GispertsForest" type="Area3D" parent="Areas"]
transform = Transform3D(1, 0, 0, 0, 1, 0, 0, 0, 1, -117.819, -13.6411, -112.889)
monitorable = false
script = ExtResource("25_otfdj")
areaName = "Dreamshade Loftwood"
env = SubResource("Environment_dqgul")
lightColor = Color(0.0352941, 0.0352941, 0.0352941, 1)
transitionTime = 2.0
parameters = Array[String](["fog_density", "fog_light_color", "fog_aerial_perspective", "fog_sun_scatter", "fog_sky_affect"])
music = ExtResource("27_xh7eu")

[node name="ProtonScatter" type="Node3D" parent="Areas/GispertsForest"]
transform = Transform3D(1, 0, 0, 0, 1, 0, 0, 0, 1, 53.1485, 0, -20.3672)
script = ExtResource("8_m7qtr")
keep_static_colliders = true
modifier_stack = SubResource("Resource_qsguo")
Performance/use_chunks = true
Performance/chunk_dimensions = Vector3(15, 15, 15)

[node name="ScatterItem" type="Node3D" parent="Areas/GispertsForest/ProtonScatter"]
script = ExtResource("14_x83fm")
source_scale_multiplier = 1.6
path = "res://addons/proton_scatter/demos/assets/pine_tree.tscn"

[node name="ScatterShape" type="Node3D" parent="Areas/GispertsForest/ProtonScatter"]
transform = Transform3D(1, 0, -2.98023e-08, 0, 1, 0, 2.98023e-08, 0, 1, 0, 0, 0)
visible = false
script = ExtResource("15_32pxs")
shape = SubResource("Resource_kqrcy")

[node name="CollisionShape3D" type="CollisionShape3D" parent="Areas/GispertsForest"]
transform = Transform3D(1, 0, 0, 0, 1, 0, 0, 0, 1, 32.7414, 0, 20.5603)
shape = SubResource("SphereShape3D_m7o3a")

[node name="SageGispaat" parent="Areas/GispertsForest" instance=ExtResource("33_4v1g2")]
transform = Transform3D(1, 0, 0, 0, 1, 0, 0, 0, 1, 33.0383, -3.18261, 9.01117)
dialog = ExtResource("31_ffbpd")
conversation = "first"
alternativeSprite = ExtResource("35_q13lo")

[node name="Sprite3D" parent="Areas/GispertsForest/SageGispaat" index="0"]
transform = Transform3D(0.196855, 0, 0, 0, 0.196855, 0, 0, 0, 0.196855, 0, 0.466784, 0)
texture = ExtResource("35_fxrft")

[node name="CollisionShape3D" parent="Areas/GispertsForest/SageGispaat" index="1"]
transform = Transform3D(1, 0, 0, 0, 1, 0, 0, 0, 1, 0, 0.533543, 0)

[node name="Board" parent="Areas/GispertsForest" instance=ExtResource("20_s6f16")]
transform = Transform3D(3.63154, 1.38479, -6.0531e-08, 6.26542e-15, -1.69889e-07, -3.88661, -1.38479, 3.63154, -1.58739e-07, 45.5729, 1.32033, 58.4685)
_auto_load_ui = ExtResource("32_x86ni")

[node name="HognicBurg" type="Area3D" parent="Areas"]
transform = Transform3D(1, 0, 0, 0, 1, 0, 0, 0, 1, -8.37617, 2.69095, 1.40201)
monitorable = false
script = ExtResource("25_otfdj")
areaName = "Aurora Temple"
env = SubResource("Environment_28as3")
lightColor = Color(1, 0.843137, 0.270588, 1)
transitionTime = 5.0
lightEnergy = 2.4
parameters = Array[String](["fog_density", "fog_light_color", "fog_sky_affect", "fog_sun_scatter", "fog_light_energy"])
music = ExtResource("28_fjqpp")

[node name="CollisionShape3D" type="CollisionShape3D" parent="Areas/HognicBurg"]
transform = Transform3D(1, 0, 0, 0, 1, 0, 0, 0, 1, 1.77711, 8.27223, 1.0728)
shape = SubResource("BoxShape3D_gwogm")

[node name="GridMap" type="GridMap" parent="Areas/HognicBurg" groups=["Stone"]]
mesh_library = ExtResource("29_5yfev")
cell_size = Vector3(0.5, 0.5, 0.5)
data = {
"cells": PackedInt32Array(1114113, 65530, 655369, 1114113, 65531, 655369, 1114113, 65532, 655369, 1114113, 65533, 655369, 1114113, 65534, 655369, 1114113, 65535, 655369, 1114113, 0, 655369, 1114113, 1, 655369, 1114113, 2, 655369, 1114113, 3, 655369, 1114114, 65530, 655369, 1114114, 65531, 655369, 1114114, 65532, 655369, 1114114, 65533, 655369, 1114114, 65534, 655369, 1114114, 65535, 655369, 1114114, 0, 655369, 1114114, 1, 655369, 1114114, 2, 655369, 1114114, 3, 655369, 1114115, 65530, 655369, 1114115, 65531, 655369, 1114115, 65532, 655369, 1114115, 65533, 655369, 1114115, 65534, 655369, 1114115, 65535, 655369, 1114115, 0, 655369, 1114115, 1, 655369, 1114115, 2, 655369, 1114115, 3, 655369, 1114115, 4, 655369, 1114115, 5, 655369, 1114116, 65530, 655369, 1114116, 65531, 655369, 1114116, 65532, 655369, 1114116, 65533, 655369, 1114116, 65534, 655369, 1114116, 65535, 655369, 1114116, 0, 655369, 1114116, 1, 655369, 1114116, 2, 655369, 1114116, 3, 655369, 1114116, 4, 655369, 1114116, 5, 655369, 1114117, 65530, 655369, 1114117, 65531, 655369, 1114117, 65532, 655369, 1114117, 65533, 655369, 1114117, 65534, 655369, 1114117, 65535, 655369, 1114117, 0, 655369, 1114117, 1, 655369, 1114117, 2, 655369, 1114117, 3, 655369, 1114117, 4, 655369, 1114117, 5, 655369, 1114118, 65530, 655369, 1114118, 65531, 655369, 1114118, 65532, 655369, 1114118, 65533, 655369, 1114118, 65534, 655369, 1114118, 65535, 655369, 1114118, 0, 655369, 1114118, 1, 655369, 1114118, 2, 655369, 1114118, 3, 655369, 1114118, 4, 655369, 1114118, 5, 655369, 1114119, 65530, 655369, 1114119, 65531, 655369, 1114119, 65532, 655369, 1114119, 65533, 655369, 1114119, 65534, 655369, 1114119, 65535, 655369, 1114119, 0, 655369, 1114119, 1, 655369, 1114119, 2, 655369, 1114119, 3, 655369, 1114119, 4, 655369, 1114119, 5, 655369, 1114120, 65530, 10, 1114120, 65531, 655369, 1114120, 65532, 655369, 1114120, 65533, 655369, 1114120, 65534, 655369, 1114120, 65535, 655369, 1114120, 0, 655369, 1114120, 1, 655369, 1114120, 2, 655369, 1114120, 3, 655369, 1114120, 4, 655369, 1114120, 5, 655369, 1114121, 65530, 655369, 1114121, 65531, 655369, 1114121, 65532, 655369, 1114121, 65533, 655369, 1114121, 65534, 655369, 1114121, 65535, 655369, 1114121, 0, 655369, 1114121, 1, 655369, 1114121, 2, 655369, 1114121, 3, 655369, 1114121, 4, 655369, 1114121, 5, 655369, 1114122, 65530, 655369, 1114122, 65531, 655369, 1114122, 65532, 655369, 1114122, 65533, 655369, 1114122, 65534, 655369, 1114122, 65535, 655369, 1114122, 0, 655369, 1114122, 1, 655369, 1114122, 2, 655369, 1114122, 3, 655369, 1114122, 4, 655369, 1114122, 5, 655369, 1114123, 65530, 655369, 1114123, 65531, 655369, 1114123, 65532, 655369, 1114123, 65533, 655369, 1114123, 65534, 655369, 1114123, 65535, 655369, 1114123, 0, 655369, 1114123, 1, 655369, 1114123, 2, 655369, 1114123, 3, 655369, 1114123, 4, 655369, 1114123, 5, 655369, 1114124, 65530, 655369, 1114124, 65531, 655369, 1114124, 65532, 655369, 1114124, 65533, 655369, 1114124, 65534, 655369, 1114124, 65535, 655369, 1114124, 0, 655369, 1114124, 1, 655369, 1114124, 2, 655369, 1114124, 3, 655369, 1114124, 4, 655369, 1114124, 5, 655369, 1114125, 65530, 655369, 1114125, 65531, 655369, 1114125, 65532, 655369, 1114125, 65533, 655369, 1114125, 65534, 655369, 1114125, 65535, 655369, 1114125, 0, 655369, 1114125, 1, 655369, 1114125, 2, 655369, 1114125, 3, 655369, 1114125, 4, 655369, 1114125, 5, 655369, 1114126, 65530, 655369, 1114126, 65531, 655369, 1114126, 65532, 655369, 1114126, 65533, 655369, 1114126, 65534, 655369, 1114126, 65535, 655369, 1114126, 0, 655369, 1114126, 1, 655369, 1114126, 2, 655369, 1114126, 3, 655369, 1114126, 4, 655369, 1114126, 5, 655369, 1114127, 65530, 655369, 1114127, 65531, 655369, 1114127, 65532, 655369, 1114127, 65533, 655369, 1114127, 65534, 655369, 1114127, 65535, 655369, 1114127, 0, 655369, 1114127, 1, 655369, 1114127, 2, 655369, 1114127, 3, 655369, 1114127, 4, 655369, 1114127, 5, 655369, 1114128, 65530, 655369, 1114128, 65531, 655369, 1114128, 65532, 655369, 1114128, 65533, 655369, 1114128, 65534, 655369, 1114128, 65535, 655369, 1114128, 0, 655369, 1114128, 1, 655369, 1114128, 2, 655369, 1114128, 3, 655369, 1114128, 4, 655369, 1114128, 5, 655369, 1114129, 65530, 655369, 1114129, 65531, 655369, 1114129, 65532, 655369, 1114129, 65533, 655369, 1114129, 65534, 655369, 1114129, 65535, 655369, 1114129, 0, 655369, 1114129, 1, 655369, 1114129, 2, 655369, 1114129, 3, 655369, 1114129, 4, 655369, 1114129, 5, 655369, 1114130, 65530, 655369, 1114130, 65531, 655369, 1114130, 65532, 655369, 1114130, 65533, 655369, 1114130, 65534, 655369, 1114130, 65535, 655369, 1114130, 0, 655369, 1114130, 1, 655369, 1114130, 2, 655369, 1114130, 3, 655369, 1114130, 4, 655369, 1114130, 5, 655369, 1114131, 65530, 655369, 1114131, 65531, 655369, 1114131, 65532, 655369, 1114131, 65533, 655369, 1114131, 65534, 655369, 1114131, 65535, 655369, 1114131, 0, 655369, 1114131, 1, 655369, 1114131, 2, 655369, 1114131, 3, 655369, 1114131, 4, 655369, 1114131, 5, 655369, 1114132, 65530, 655369, 1114132, 65531, 655369, 1114132, 65532, 655369, 1114132, 65533, 655369, 1114132, 65534, 655369, 1114132, 65535, 655369, 1114132, 0, 655369, 1114132, 1, 655369, 1114132, 2, 655369, 1114132, 3, 655369, 1114132, 4, 655369, 1114132, 5, 655369, 1114133, 65530, 655369, 1114133, 65531, 655369, 1114133, 65532, 655369, 1114133, 65533, 655369, 1114133, 65534, 655369, 1114133, 65535, 655369, 1114133, 0, 655369, 1114133, 1, 655369, 1114133, 2, 655369, 1114133, 3, 655369, 1114133, 4, 655369, 1114133, 5, 655369, 1114134, 65530, 655369, 1114134, 65531, 655369, 1114134, 65532, 655369, 1114134, 65533, 655369, 1114134, 65534, 655369, 1114134, 65535, 655369, 1114134, 0, 655369, 1114134, 1, 655369, 1114134, 2, 655369, 1114134, 3, 655369, 1114134, 4, 655369, 1114134, 5, 655369, 1114135, 65530, 655369, 1114135, 65531, 655369, 1114135, 65532, 655369, 1114135, 65533, 655369, 1114135, 65534, 655369, 1114135, 65535, 655369, 1114135, 0, 655369, 1114135, 1, 655369, 1114135, 2, 655369, 1114135, 3, 655369, 1114135, 4, 655369, 1114135, 5, 655369, 1114136, 65530, 655369, 1114136, 65531, 655369, 1114136, 65532, 655369, 1114136, 65533, 655369, 1114136, 65534, 655369, 1114136, 65535, 655369, 1114136, 0, 655369, 1114136, 1, 655369, 1114136, 2, 655369, 1114136, 3, 655369, 1114136, 4, 655369, 1114136, 5, 655369, 917527, 65531, 655374, 1245183, 5, 655369, 1245183, 3, 655369, 1245183, 2, 655369, 1245183, 1, 655369, 1245183, 0, 655369, 1245183, 65535, 655369, 1245183, 65534, 655369, 1245183, 65533, 655369, 1245183, 65532, 655369, 1245183, 65531, 655369, 1245183, 65530, 655369, 1245178, 65530, 655369, 1245178, 65531, 655369, 1245178, 65532, 655369, 1245178, 65533, 655369, 1245178, 65534, 655369, 1245178, 65535, 655369, 1245178, 0, 655369, 1245178, 1, 655369, 1245178, 2, 655369, 1245178, 3, 655369, 1245178, 4, 655369, 1245178, 5, 655369, 1245179, 65530, 655369, 1245179, 65531, 655369, 1245179, 65532, 655369, 1245179, 65533, 655369, 1245179, 65534, 655369, 1245179, 65535, 655369, 1245179, 0, 655369, 1245179, 1, 655369, 1245179, 2, 655369, 1245179, 3, 655369, 1245179, 4, 655369, 1245179, 5, 655369, 1245180, 65530, 655369, 1245180, 65531, 655369, 1245180, 65532, 655369, 1245180, 65533, 655369, 1245180, 65534, 655369, 1245180, 65535, 655369, 1245180, 0, 655369, 1245180, 1, 655369, 1245180, 2, 655369, 1245180, 3, 655369, 1245180, 4, 655369, 1245180, 5, 655369, 1245181, 65530, 655369, 1245181, 65531, 655369, 1245181, 65532, 655369, 1245181, 65533, 655369, 1245181, 65534, 655369, 1245181, 65535, 655369, 1245181, 0, 655369, 1245181, 1, 655369, 1245181, 2, 655369, 1245181, 3, 655369, 1245181, 4, 655369, 1245181, 5, 655369, 1245182, 65530, 655369, 1245182, 65531, 655369, 1245182, 65532, 655369, 1245182, 65533, 655369, 1245182, 65534, 655369, 1245182, 65535, 655369, 1245182, 0, 655369, 1245182, 1, 655369, 1245182, 2, 655369, 1245182, 3, 655369, 1245182, 4, 655369, 1245182, 5, 655369, 1245183, 4, 655369, 1048569, 65532, 655374, 917504, 65531, 655374, 1048569, 6, 655374, 851991, 6, 655373, 983063, 6, 655373, 1114135, 6, 655373, 1245207, 6, 655373, 1376279, 6, 655373, 1507351, 6, 655373, 917504, 6, 655373, 1048576, 6, 655373, 1114113, 5, 655369, 1179648, 6, 655373, 1310720, 6, 655373, 1441792, 6, 655373, 1572864, 6, 655373, 1572866, 4, 12, 1572868, 4, 11, 1572870, 4, 11, 1572872, 4, 11, 1572874, 4, 11, 1572876, 4, 11, 1572878, 4, 11, 1572880, 4, 11, 1572882, 4, 11, 1572884, 4, 11, 1572885, 6, 655371, 1572887, 6, 655372, 1114136, 7, 655385, 1114135, 7, 655385, 1114134, 7, 655385, 1114133, 7, 655385, 1114132, 7, 655385, 1114131, 7, 655385, 1114130, 7, 655385, 1114129, 7, 655385, 1114128, 7, 655385, 1114127, 7, 655385, 1114126, 7, 655385, 1114125, 7, 655385, 1114124, 7, 655385, 1114123, 7, 655385, 1114122, 7, 655385, 1114121, 7, 655385, 1114120, 7, 655385, 1114119, 7, 655385, 1114118, 7, 655385, 1114117, 7, 655385, 1114116, 7, 655385, 1114115, 7, 655385, 1114114, 7, 655385, 1114113, 7, 655385, 1114112, 7, 655385, 1245183, 7, 655385, 1245182, 7, 655385, 1245181, 7, 655385, 1245180, 7, 655385, 1245180, 6, 655385, 1245179, 6, 655385, 1245179, 7, 655385, 1245178, 7, 655385, 1245177, 7, 655385, 1245176, 5, 1048601, 1245176, 4, 1048601, 1245176, 3, 1048601, 1245176, 2, 1048601, 1245176, 1, 1048601, 1245176, 0, 1048601, 1245176, 65535, 1048601, 1245176, 65534, 1048601, 1245176, 65533, 1048601, 1245176, 65532, 1048601, 1245176, 65531, 1048601, 1245176, 65530, 1048601, 1245176, 65529, 1048601, 1245177, 65528, 25, 1245178, 65528, 25, 1245179, 65528, 25, 1245180, 65528, 25, 1245181, 65528, 25, 1245182, 65528, 25, 1245183, 65528, 25, 1179648, 65528, 25, 1114113, 65528, 25, 1114114, 65528, 25, 1114115, 65528, 25, 1114116, 65528, 25, 1114117, 65528, 25, 1114118, 65528, 25, 1114119, 65528, 25, 1114120, 65528, 25, 1114121, 65528, 25, 1114122, 65528, 25, 1114123, 65528, 25, 1114124, 65528, 25, 1114125, 65528, 25, 1114126, 65528, 25, 1114127, 65528, 25, 1114128, 65528, 25, 1114129, 65528, 25, 1114130, 65528, 25, 1114131, 65528, 25, 1114132, 65528, 25, 1114133, 65528, 25, 1114134, 65528, 25, 1114135, 65528, 25, 1114136, 65528, 25, 1114137, 65528, 25, 1114138, 6, 1441817, 1114138, 5, 1441817, 1114138, 4, 1441817, 1114138, 3, 1441817, 1114138, 2, 1441817, 1114138, 1, 1441817, 1114138, 0, 1441817, 1114138, 65535, 1441817, 1114138, 65534, 1441817, 1114138, 65533, 1441817, 1114138, 65532, 1441817, 1114138, 65531, 1441817, 1114138, 65530, 1441817, 1114138, 65528, 23, 1114138, 7, 1441815, 1179647, 7, 655383, 1179647, 65528, 1048599, 1179647, 65529, 1048601, 1179647, 65530, 1048601, 1179647, 65531, 1048601, 1179647, 65532, 1048601, 1179647, 65533, 1048601, 1179647, 65534, 1048601, 1179647, 65535, 1048601, 1179647, 0, 1048601, 1179647, 1, 1048601, 1179647, 2, 1048601, 1179647, 3, 1048601, 1179647, 4, 1048601, 1179647, 5, 1048601, 1245176, 7, 655385, 1245175, 65528, 1048599, 1245175, 65529, 1048601, 1245175, 65530, 1048601, 1245175, 65531, 1048601, 1245175, 65532, 1048601, 1245175, 65533, 1048601, 1245175, 65534, 1048601, 1245175, 65535, 1048601, 1245175, 0, 1048601, 1245175, 1, 1048601, 1245175, 2, 1048601, 1245175, 3, 1048601, 1245175, 4, 1048601, 1245175, 5, 1048601, 1245177, 5, 1048585, 1245177, 4, 1048585, 1245177, 3, 1048585, 1245177, 2, 1048585, 1245177, 1, 1048585, 1245177, 0, 1048585, 1245177, 65535, 1048585, 1245177, 65534, 1048585, 1245177, 65533, 1048585, 1245177, 65532, 1048585, 1245177, 65531, 1048585, 1245177, 65530, 1048585, 1245175, 7, 655383, 1376278, 65529, 1441801, 1376279, 65527, 25, 1376278, 65527, 25, 1376276, 65529, 1048601, 1376277, 65531, 655385, 1376278, 65531, 655385, 1376280, 65529, 1441817, 1376280, 65530, 1441817, 1376276, 65528, 1048601, 1376276, 65527, 1048599, 1376276, 65531, 655383, 1376280, 65531, 1441815, 1376280, 65527, 23, 1572876, 65533, 1048599, 1572876, 65534, 1048601, 1572876, 65535, 1048601, 1572876, 1, 655383, 1572877, 1, 655385, 1572878, 65533, 25, 1572878, 65535, 1441801, 1572878, 1, 655385, 1572879, 65533, 25, 1572880, 65533, 23, 1572880, 65535, 1441817, 1572880, 0, 1441817, 1572880, 1, 1441815, 1769481, 65523, 1048599, 1769481, 65524, 1048601, 1769481, 65525, 1048601, 1769481, 65527, 655383, 1769482, 65527, 655385, 1769483, 65523, 25, 1769483, 65525, 1441801, 1769483, 65527, 655385, 1769484, 65523, 25, 1769485, 65523, 23, 1769485, 65525, 1441817, 1769485, 65526, 1441817, 1769485, 65527, 1441815, 1245192, 65530, 13, 1376264, 65530, 13, 1507336, 65530, 13, 1638408, 65530, 13, 1769480, 65530, 13, 1900550, 65532, 655372, 1900548, 65532, 655371, 1900546, 65532, 655371, 1900544, 65532, 655371, 1966078, 65532, 655371, 1966076, 65532, 655371, 1966074, 65532, 655371, 1966072, 65530, 12, 1835000, 65530, 13, 2162679, 1, 9, 2162679, 3, 9, 2162679, 5, 9, 2162679, 7, 9, 2162681, 9, 9, 2162683, 9, 9, 2162685, 9, 9, 2162687, 9, 9, 2097153, 9, 9, 2097155, 9, 9, 2097157, 9, 9, 2097159, 9, 9, 2097161, 9, 9, 2097163, 9, 9, 2097165, 11, 1441815, 2097165, 7, 23, 2162679, 11, 655383, 2162677, 9, 655383, 2162677, 65535, 1048599, 2162681, 65535, 23, 2097164, 7, 25, 2097163, 7, 25, 2097162, 7, 25, 2097161, 7, 25, 2097160, 7, 25, 2097159, 7, 25, 2097158, 7, 25, 2097157, 7, 25, 2097156, 7, 25, 2097155, 7, 25, 2097154, 7, 25, 2097153, 7, 25, 2097152, 7, 25, 2162687, 7, 25, 2162686, 7, 25, 2162685, 7, 25, 2162684, 7, 25, 2162683, 7, 25, 2162682, 7, 25, 2162681, 7, 1441817, 2162681, 6, 1441817, 2162681, 5, 1441817, 2162681, 4, 1441817, 2162681, 3, 1441817, 2162681, 2, 1441817, 2162681, 1, 1441817, 2097165, 9, 1441817, 2097165, 10, 1441817, 2097163, 11, 655385, 2097162, 11, 655385, 2097161, 11, 655385, 2097160, 11, 655385, 2097159, 11, 655385, 2097158, 11, 655385, 2097157, 11, 655385, 2097156, 11, 655385, 2097155, 11, 655385, 2097154, 11, 655385, 2097153, 11, 655385, 2097152, 11, 655385, 2162687, 11, 655385, 2162686, 11, 655385, 2162685, 11, 655385, 2162684, 11, 655385, 2162683, 11, 655385, 2162682, 11, 655385, 2162680, 11, 655385, 2162681, 11, 655385, 2162679, 9, 1048601, 2162678, 9, 655385, 2162677, 7, 1048601, 2162677, 6, 1048601, 2162677, 5, 1048601, 2162677, 4, 1048601, 2162677, 3, 1048601, 2162677, 2, 1048601, 2162677, 1, 1048601, 2162677, 0, 1048601, 2162680, 65535, 25, 2162679, 65535, 25, 2162680, 8, 9, 1048604, 4, 1048585, 1048604, 2, 1048585, 1048604, 0, 1048585, 1048604, 65534, 1048585, 1048604, 65532, 1048585, 1048606, 6, 1441815, 1048602, 6, 655383, 1048602, 65530, 1048599, 1048606, 65530, 23, 1048604, 65530, 25, 1048605, 65530, 25, 1048606, 65532, 1441817, 1048606, 65533, 1441817, 1048606, 65534, 1441817, 1048606, 65535, 1441817, 1048606, 0, 1441817, 1048606, 1, 1441817, 1048606, 2, 1441817, 1048606, 3, 1441817, 1048606, 4, 1441817, 1048606, 5, 1441817, 1048604, 6, 655385, 1048603, 6, 655385, 1048602, 4, 1048601, 1048602, 3, 1048601, 1048602, 2, 1048601, 1048602, 1, 1048601, 1048602, 0, 1048601, 1048602, 65535, 1048601, 1048602, 65534, 1048601, 1048602, 65533, 1048601, 1048602, 65532, 1048601, 1048602, 65531, 1048601, 1703928, 65530, 13, 1572854, 65530, 1048586, 983068, 65530, 1048599, 983068, 65531, 1048601, 983068, 65532, 1048601, 983068, 65533, 1048601, 983068, 65534, 1048601, 983068, 65535, 1048601, 983068, 0, 1048601, 983068, 1, 1048601, 983068, 2, 1048601, 983068, 3, 1048601, 983068, 4, 1048601, 983068, 6, 655383, 983069, 6, 655385, 983070, 65530, 25, 983070, 65532, 1048585, 983070, 65534, 1048585, 983070, 0, 1048585, 983070, 2, 1048585, 983070, 4, 1048585, 983070, 6, 655385, 983071, 65530, 25, 983072, 65530, 23, 983072, 65532, 1441817, 983072, 65533, 1441817, 983072, 65534, 1441817, 983072, 65535, 1441817, 983072, 0, 1441817, 983072, 1, 1441817, 983072, 2, 1441817, 983072, 3, 1441817, 983072, 4, 1441817, 983072, 5, 1441817, 983072, 6, 1441815, 917534, 65530, 1048599, 917534, 65531, 1048601, 917534, 65532, 1048601, 917534, 65533, 1048601, 917534, 65534, 1048601, 917534, 65535, 1048601, 917534, 0, 1048601, 917534, 1, 1048601, 917534, 2, 1048601, 917534, 3, 1048601, 917534, 4, 1048601, 917534, 6, 655383, 917535, 6, 655385, 917536, 65530, 25, 917536, 65532, 1048585, 917536, 65534, 1048585, 917536, 0, 1048585, 917536, 2, 1048585, 917536, 4, 1048585, 917536, 6, 655385, 917537, 65530, 25, 917538, 65530, 23, 917538, 65532, 1441817, 917538, 65533, 1441817, 917538, 65534, 1441817, 917538, 65535, 1441817, 917538, 0, 1441817, 917538, 1, 1441817, 917538, 2, 1441817, 917538, 3, 1441817, 917538, 4, 1441817, 917538, 5, 1441817, 917538, 6, 1441815, 852000, 65530, 1048599, 852000, 65531, 1048601, 852000, 65532, 1048601, 852000, 65533, 1048601, 852000, 65534, 1048601, 852000, 65535, 1048601, 852000, 0, 1048601, 852000, 1, 1048601, 852000, 2, 1048601, 852000, 3, 1048601, 852000, 4, 1048601, 852000, 6, 655383, 852001, 6, 655385, 852002, 65530, 25, 852002, 65532, 1048585, 852002, 65534, 1048585, 852002, 0, 1048585, 852002, 2, 1048585, 852002, 4, 1048585, 852002, 6, 655385, 852003, 65530, 25, 852004, 65530, 23, 852004, 65532, 1441817, 852004, 65533, 1441817, 852004, 65534, 1441817, 852004, 65535, 1441817, 852004, 0, 1441817, 852004, 1, 1441817, 852004, 2, 1441817, 852004, 3, 1441817, 852004, 4, 1441817, 852004, 5, 1441817, 852004, 6, 1441815)
}
metadata/_editor_floor_ = Vector3(0, 13, 0)

[node name="Orb" type="Area3D" parent="Areas/HognicBurg/GridMap"]
transform = Transform3D(1, 0, 0, 0, 1, 0, 0, 0, 1, 5.54768, 16.704, 4.73929)
script = SubResource("GDScript_4vh62")

[node name="orb" parent="Areas/HognicBurg/GridMap/Orb" instance=ExtResource("32_hn0ap")]
transform = Transform3D(0.358079, 0, 0, 0, 0.358079, 0, 0, 0, 0.358079, 0, 0.728273, 0)
script = SubResource("GDScript_fwevy")

[node name="OmniLight3D" type="OmniLight3D" parent="Areas/HognicBurg/GridMap/Orb/orb"]
transform = Transform3D(2.79268, 0, 0, 0, 2.79268, 0, 0, 0, 2.79268, 0, -0.389526, 0)
light_color = Color(0, 1, 0.866667, 1)
light_energy = 1.8
omni_range = 1.862
omni_attenuation = 1.60388

[node name="CollisionShape3D" type="CollisionShape3D" parent="Areas/HognicBurg/GridMap/Orb"]
transform = Transform3D(1, 0, 0, 0, 1, 0, 0, 0, 1, 0, 0.713221, 0)
shape = SubResource("SphereShape3D_tquam")

[node name="GPUParticles3D" type="GPUParticles3D" parent="Areas/HognicBurg/GridMap/Orb"]
transform = Transform3D(1, 0, 0, 0, 1, 0, 0, 0, 1, 0, 0.788319, 0)
amount = 40
process_material = SubResource("ParticleProcessMaterial_x370g")
draw_pass_1 = SubResource("SphereMesh_u18ax")

[node name="Fences" type="GridMap" parent="Areas/HognicBurg"]
mesh_library = ExtResource("29_5yfev")
cell_size = Vector3(0.5, 0.5, 0.5)
data = {
"cells": PackedInt32Array(1245182, 65530, 655362, 1245177, 65530, 1441794, 1114114, 65530, 1441794, 1114136, 65530, 655362, 1114116, 65530, 655364, 1114118, 65530, 655364, 1114120, 65530, 655364, 1114122, 65530, 655364, 1114124, 65530, 655364, 1114126, 65530, 655364, 1114128, 65530, 655364, 1114130, 65530, 655364, 1114132, 65530, 655364, 1114134, 65530, 655364, 1114114, 6, 655422, 1114118, 6, 655422, 1114122, 6, 655422, 1114126, 6, 655422, 1114130, 6, 655425, 1114132, 6, 655425, 1114134, 6, 655425, 1114135, 6, 655425, 1245202, 6, 655425, 1245204, 6, 655425, 1245206, 6, 655425, 1245207, 6, 655425, 1376258, 6, 655425, 1376259, 6, 655425, 1376260, 6, 655425, 1376261, 6, 655425, 1376262, 6, 655425, 1376263, 6, 655425, 1376264, 6, 655425, 1376265, 6, 655425, 1376266, 6, 655425, 1376267, 6, 655425, 1376268, 6, 655425, 1376269, 6, 655425, 1376270, 6, 655425, 1376271, 6, 655425, 1376272, 6, 655425, 1376273, 6, 655425, 1376274, 6, 655425, 1376275, 6, 655425, 1376276, 6, 655425, 1376277, 6, 655425, 1376279, 6, 655425, 1507330, 6, 655427, 1507332, 6, 655427, 1507334, 6, 655427, 1507336, 6, 655427, 1507338, 6, 655427, 1507340, 6, 655427, 1507342, 6, 655427, 1507344, 6, 655427, 1507346, 6, 655427, 1507348, 6, 655427, 1507350, 6, 655427, 1507351, 6, 655425, 1245177, 3, 1441796, 1245177, 1, 1441796, 1245177, 65535, 1441796, 1245177, 65533, 1441796, 1245177, 65532, 1441796, 1245180, 65530, 655364, 1245179, 65530, 655364, 1114138, 4, 1441795, 1179648, 65532, 1441795, 1245182, 3, 1048579, 1245177, 4, 1441795, 1179648, 5, 1441795, 1179642, 9, 1441815, 1179642, 7, 23, 1179640, 7, 1048599, 1179640, 9, 655383, 1114107, 10, 655383, 1114109, 10, 1441815, 1114109, 7, 23, 1114107, 7, 1048599, 1114107, 8, 1048601, 1114109, 9, 1441817, 1114114, 65532, 1441795, 1114138, 65532, 1441795, 1114136, 2, 1048579)
}
metadata/_editor_floor_ = Vector3(0, 17, 0)

[node name="OccluderInstance3D" type="OccluderInstance3D" parent="Areas/HognicBurg/Fences"]
transform = Transform3D(1, 0, 0, 0, 1, 0, 0, 0, 1, 10.5028, 10.3065, 2.67122)
occluder = SubResource("QuadOccluder3D_jn6x6")

[node name="TalkArea" type="Area3D" parent="Areas/HognicBurg" node_paths=PackedStringArray("next")]
transform = Transform3D(1, 0, 0, 0, 1, 0, 0, 0, 1, 3.87664, 8.0429, 4.94627)
script = ExtResource("31_27su3")
dialog = ExtResource("32_yvhjj")
conversation = "first"
next = NodePath("../TalkArea2")

[node name="CollisionShape3D" type="CollisionShape3D" parent="Areas/HognicBurg/TalkArea"]
transform = Transform3D(1, 0, 0, 0, 1, 0, 0, 0, 1, 0.219177, -1.41943, -4.31848)
shape = SubResource("BoxShape3D_cjptl")

[node name="TalkArea2" type="Area3D" parent="Areas/HognicBurg"]
transform = Transform3D(1, 0, 0, 0, 1, 0, 0, 0, 1, 10.1242, 9.74611, 1.38942)
monitoring = false
monitorable = false
script = ExtResource("31_27su3")
dialog = ExtResource("32_yvhjj")
conversation = "second"

[node name="CollisionShape3D" type="CollisionShape3D" parent="Areas/HognicBurg/TalkArea2"]
transform = Transform3D(1, 0, 0, 0, 1, 0, 0, 0, 1, 0.243469, 0.0246582, -0.47856)
shape = SubResource("BoxShape3D_kvqkq")

[node name="Horgna" parent="Areas/HognicBurg" instance=ExtResource("33_4v1g2")]
transform = Transform3D(1, 0, 0, 0, 1, 0, 0, 0, 1, 10.5018, 9.08448, 0.431273)
alternativeSprite = ExtResource("43_qulom")

[node name="Sprite3D" parent="Areas/HognicBurg/Horgna" index="0"]
texture = ExtResource("42_1fbta")

[node name="Apples" type="Node3D" parent="Areas/HognicBurg"]

[node name="Apple" parent="Areas/HognicBurg/Apples" instance=ExtResource("39_dumcj")]
transform = Transform3D(1, 0, 0, 0, 1, 0, 0, 0, 1, 14.8873, 6.70751, -2.45548)

[node name="Apple2" parent="Areas/HognicBurg/Apples" instance=ExtResource("39_dumcj")]
transform = Transform3D(1, 0, 0, 0, 1, 0, 0, 0, 1, 7.36517, 5.8163, 7.08597)

[node name="Apple3" parent="Areas/HognicBurg/Apples" instance=ExtResource("39_dumcj")]
transform = Transform3D(1, 0, 0, 0, 1, 0, 0, 0, 1, -12.6447, 6.38087, -0.506166)

[node name="Apple4" parent="Areas/HognicBurg/Apples" instance=ExtResource("39_dumcj")]
transform = Transform3D(1, 0, 0, 0, 1, 0, 0, 0, 1, -3.41101, 9.7572, -2.96976)

[node name="Apple5" parent="Areas/HognicBurg/Apples" instance=ExtResource("39_dumcj")]
transform = Transform3D(1, 0, 0, 0, 1, 0, 0, 0, 1, 4.87708, 7.22245, -3.46472)

[node name="Apple6" parent="Areas/HognicBurg/Apples" instance=ExtResource("39_dumcj")]
transform = Transform3D(1, 0, 0, 0, 1, 0, 0, 0, 1, 1.71182, 8.71643, 2.94519)

[node name="Apple7" parent="Areas/HognicBurg/Apples" instance=ExtResource("39_dumcj")]
transform = Transform3D(1, 0, 0, 0, 1, 0, 0, 0, 1, -3.19641, 8.01215, -1.12113)

[node name="Apple8" parent="Areas/HognicBurg/Apples" instance=ExtResource("39_dumcj")]
transform = Transform3D(1, 0, 0, 0, 1, 0, 0, 0, 1, 12.8867, 8.71421, 2.73192)

[node name="Apple9" parent="Areas/HognicBurg/Apples" instance=ExtResource("39_dumcj")]
transform = Transform3D(1, 0, 0, 0, 1, 0, 0, 0, 1, 12.0367, 8.71421, -2.78818)

[node name="Apple10" parent="Areas/HognicBurg/Apples" instance=ExtResource("39_dumcj")]
transform = Transform3D(1, 0, 0, 0, 1, 0, 0, 0, 1, 3.74195, 8.71421, -2.92969)

[node name="Nothingness" type="Area3D" parent="Areas"]
transform = Transform3D(1, 0, 0, 0, 1, 0, 0, 0, 1, 113.274, 0, 0)
script = ExtResource("25_otfdj")
areaName = "Nothingness Lands"
lightColor = Color(0.756863, 1, 0.835294, 1)
transitionTime = 6.0

[node name="CollisionShape3D" type="CollisionShape3D" parent="Areas/Nothingness"]
transform = Transform3D(0.940437, 0, 0.339969, 0, 1, 0, -0.339969, 0, 0.940437, 56.9512, -23.3766, -52.4972)
shape = SubResource("BoxShape3D_p7o0s")

[node name="LookoutCorner" type="Area3D" parent="Areas"]
transform = Transform3D(1, 0, 0, 0, 1, 0, 0, 0, 1, -124.698, 0, 66.753)
script = ExtResource("25_otfdj")
areaName = "Little Lookout Corner"
lightColor = Color(1, 0.627451, 0.321569, 1)
transitionTime = 5.0
lightEnergy = 2.0

[node name="CollisionShape3D" type="CollisionShape3D" parent="Areas/LookoutCorner"]
transform = Transform3D(1, 0, 0, 0, 1, 0, 0, 0, 1, -12.359, -11.0883, 16.8148)
shape = SubResource("BoxShape3D_q873g")

[node name="DirectionalLight3D2" type="DirectionalLight3D" parent="."]
transform = Transform3D(1, 0, 0, 0, 0.500076, 0.865982, 0, -0.865982, 0.500076, 0, 0, 0)
visible = false
editor_only = true

[node name="Sun" type="DirectionalLight3D" parent="."]
unique_name_in_owner = true
transform = Transform3D(0.921287, 0.289529, -0.25962, -0.0162013, 0.695601, 0.718246, 0.388545, -0.657505, 0.645539, 0, 20.2635, 0)
light_bake_mode = 1
shadow_enabled = true
shadow_blur = 0.124
directional_shadow_mode = 0
directional_shadow_fade_start = 0.865
directional_shadow_max_distance = 17.5

[node name="Anim" type="AnimationPlayer" parent="."]
libraries = {
"": SubResource("AnimationLibrary_f53g3")
}

[node name="Path3D" type="Path3D" parent="Anim"]
curve = SubResource("Curve3D_dweyu")

[node name="PathFollow3D" type="PathFollow3D" parent="Anim/Path3D"]
transform = Transform3D(0.981427, 0.0382424, -0.187629, -7.45009e-09, 0.979792, 0.199691, 0.191491, -0.196, 0.961635, -11.5924, 16.7776, 5.14901)

[node name="Camera3D" type="Camera3D" parent="Anim/Path3D/PathFollow3D"]

[node name="Anchor" type="Node3D" parent="Anim"]
transform = Transform3D(-1, -2.53518e-06, 0, 2.53518e-06, -1, 0, 0, 0, 1, 0, 0, 0)

[node name="MeshInstance3D" type="MeshInstance3D" parent="Anim/Anchor"]
transform = Transform3D(1, 0, 0, 0, 1, 0, 0, 0, 1, 0, 595.582, 0)
mesh = SubResource("SphereMesh_o8546")
skeleton = NodePath("../..")

[node name="DeathArea" type="Area3D" parent="."]
transform = Transform3D(1, 0, 0, 0, 1, 0, 0, 0, 1, 0, -34.3554, 0)
script = SubResource("GDScript_ygohs")

[node name="CollisionShape3D" type="CollisionShape3D" parent="DeathArea"]
shape = SubResource("BoxShape3D_bo5g5")

[node name="Marker3D" type="Marker3D" parent="DeathArea"]
transform = Transform3D(1, 0, 0, 0, 1, 0, 0, 0, 1, -6.01787, 23.3485, 135.108)

[node name="Naming" type="Control" parent="."]
layout_mode = 3
anchors_preset = 15
anchor_right = 1.0
anchor_bottom = 1.0
grow_horizontal = 2
grow_vertical = 2
mouse_filter = 1

[node name="AreaName" type="Label" parent="Naming"]
unique_name_in_owner = true
modulate = Color(1, 1, 1, 0)
material = SubResource("ShaderMaterial_p3c6u")
layout_mode = 1
anchors_preset = 5
anchor_left = 0.5
anchor_right = 0.5
offset_left = -301.0
offset_top = 99.0
offset_right = 301.0
offset_bottom = 218.0
grow_horizontal = 2
text = "Example Place and Area"
label_settings = SubResource("LabelSettings_qlob4")
horizontal_alignment = 1
vertical_alignment = 1

[node name="GPUParticles3D" type="GPUParticles3D" parent="."]
transform = Transform3D(1, 0, 0, 0, 1, 0, 0, 0, 1, -5.09353, 14.5579, 1.39598)
amount = 300
lifetime = 5.0
visibility_aabb = AABB(-20.5186, -9.21806, -13.837, 41.0371, 18.4361, 27.674)
process_material = SubResource("ParticleProcessMaterial_33lhp")
draw_pass_1 = SubResource("QuadMesh_7ey0w")

[editable path="Areas/GispertsForest/SageGispaat"]
[editable path="Areas/HognicBurg/Horgna"]
