[gd_scene load_steps=6 format=3 uid="uid://blwm4xg2ycp2t"]

[ext_resource type="Shader" path="res://addons/marty_essentials/shaders/grass.gdshader" id="1_wcqpo"]

[sub_resource type="FastNoiseLite" id="FastNoiseLite_4fyya"]
fractal_type = 0

[sub_resource type="NoiseTexture2D" id="NoiseTexture2D_e4paf"]
seamless = true
noise = SubResource("FastNoiseLite_4fyya")

[sub_resource type="ShaderMaterial" id="ShaderMaterial_nvm5l"]
render_priority = 0
shader = ExtResource("1_wcqpo")
shader_parameter/topColor = null
shader_parameter/bottomColor = Color(1, 1, 1, 1)
shader_parameter/metallic = 0.0
shader_parameter/specular = null
shader_parameter/roughness = null
shader_parameter/windStrength = 0.265
shader_parameter/downMovement = 0.205
shader_parameter/timeScale = 0.865
shader_parameter/uvScale = 0.69
shader_parameter/yScale = 0.125
shader_parameter/windNoise = SubResource("NoiseTexture2D_e4paf")

[sub_resource type="ArrayMesh" id="ArrayMesh_cgy50"]
_surfaces = [{
"aabb": AABB(0, 0, -0.119334, 1e-05, 0.397782, 0.238678),
"attribute_data": PackedByteArray(0, 0, 255, 255, 255, 127, 0, 0, 255, 255, 255, 255),
"format": 34896613399,
"index_count": 3,
"index_data": PackedByteArray(0, 0, 1, 0, 2, 0),
"material": SubResource("ShaderMaterial_nvm5l"),
"primitive": 3,
"uv_scale": Vector4(0, 0, 0, 0),
"vertex_count": 3,
"vertex_data": PackedByteArray(0, 0, 0, 0, 252, 255, 255, 191, 0, 0, 255, 255, 254, 127, 255, 191, 0, 0, 0, 0, 0, 0, 255, 191, 255, 127, 0, 0, 255, 127, 0, 0, 255, 127, 0, 0)
}]

[node name="Grass" type="Node3D"]

[node name="MeshInstance3D" type="MeshInstance3D" parent="."]
mesh = SubResource("ArrayMesh_cgy50")
